D:\Project\DreamFish\src\main\java\com\praya\dreamfish\event\EventMemory.java
D:\Project\DreamFish\src\main\java\com\praya\dreamfish\item\ItemRequirement.java
D:\Project\DreamFish\src\main\java\com\praya\dreamfish\listener\main\ListenerPlayerQuit.java
D:\Project\DreamFish\src\main\java\com\praya\dreamfish\command\bait\CommandBait.java
D:\Project\DreamFish\src\main\java\com\praya\dreamfish\player\PlayerFishingDatabaseTask.java
D:\Project\DreamFish\src\main\java\com\praya\dreamfish\tabcompleter\dreamfish\TabCompleterDreamFishExp.java
D:\Project\DreamFish\src\main\java\com\praya\dreamfish\manager\player\PlayerManager.java
D:\Project\DreamFish\src\main\java\com\praya\dreamfish\tabcompleter\TabCompleterTreeMemory.java
D:\Project\DreamFish\src\main\java\com\praya\dreamfish\language\LanguageConfig.java
D:\Project\DreamFish\src\main\java\com\praya\dreamfish\command\CommandMemory.java
D:\Project\DreamFish\src\main\java\com\praya\dreamfish\listener\custom\ListenerPlayerFishingExpChange.java
D:\Project\DreamFish\src\main\java\com\praya\dreamfish\handler\HandlerListener.java
D:\Project\DreamFish\src\main\java\com\praya\dreamfish\listener\main\ListenerItemHeld.java
D:\Project\DreamFish\src\main\java\com\praya\dreamfish\manager\game\EventManager.java
D:\Project\DreamFish\src\main\java\com\praya\dreamfish\manager\game\TabCompleterTreeManager.java
D:\Project\DreamFish\src\main\java\com\praya\dreamfish\fish\FishConfig.java
D:\Project\DreamFish\src\main\java\com\praya\dreamfish\listener\custom\ListenerPlayerCatchFish.java
D:\Project\DreamFish\src\main\java\com\praya\dreamfish\event\PlayerExtendLuresEvent.java
D:\Project\DreamFish\src\main\java\com\praya\dreamfish\manager\player\PlayerBaitManager.java
D:\Project\DreamFish\src\main\java\com\praya\dreamfish\manager\task\TaskManager.java
D:\Project\DreamFish\src\main\java\com\praya\dreamfish\manager\game\MenuManager.java
D:\Project\DreamFish\src\main\java\com\praya\dreamfish\tabcompleter\TabCompleterTree.java
D:\Project\DreamFish\src\main\java\com\praya\dreamfish\listener\main\ListenerPlayerInteract.java
D:\Project\DreamFish\src\main\java\com\praya\dreamfish\handler\HandlerPacket.java
D:\Project\DreamFish\src\main\java\com\praya\dreamfish\command\dreamfish\CommandDreamFishLevel.java
D:\Project\DreamFish\src\main\java\com\praya\dreamfish\listener\main\ListenerEntityDamageByEntity.java
D:\Project\DreamFish\src\main\java\com\praya\dreamfish\bait\BaitFishing.java
D:\Project\DreamFish\src\main\java\com\praya\dreamfish\handler\HandlerConfig.java
D:\Project\DreamFish\src\main\java\com\praya\dreamfish\listener\custom\ListenerPlayerExtendLures.java
D:\Project\DreamFish\src\main\java\com\praya\dreamfish\DreamFish.java
D:\Project\DreamFish\src\main\java\com\praya\dreamfish\handler\HandlerCommand.java
D:\Project\DreamFish\src\main\java\com\praya\dreamfish\event\PlayerFishingExpChangeEvent.java
D:\Project\DreamFish\src\main\java\com\praya\dreamfish\manager\player\PlayerFishingManager.java
D:\Project\DreamFish\src\main\java\com\praya\dreamfish\command\CommandConfig.java
D:\Project\DreamFish\src\main\java\com\praya\dreamfish\plugin\PluginPropertiesConfig.java
D:\Project\DreamFish\src\main\java\com\praya\dreamfish\DreamFishPluginMemory.java
D:\Project\DreamFish\src\main\java\com\praya\dreamfish\player\PlayerBait.java
D:\Project\DreamFish\src\main\java\com\praya\dreamfish\manager\task\TaskPlayerFishingManager.java
D:\Project\DreamFish\src\main\java\com\praya\dreamfish\DreamFishGameMemory.java
D:\Project\DreamFish\src\main\java\com\praya\dreamfish\command\dreamfish\CommandDreamFishMenu.java
D:\Project\DreamFish\src\main\java\com\praya\dreamfish\handler\HandlerEvent.java
D:\Project\DreamFish\src\main\java\com\praya\dreamfish\player\PlayerFishingMode.java
D:\Project\DreamFish\src\main\java\com\praya\dreamfish\tabcompleter\dreamfish\TabCompleterDreamFish.java
D:\Project\DreamFish\src\main\java\com\praya\dreamfish\manager\player\PlayerFishingModeManager.java
D:\Project\DreamFish\src\main\java\com\praya\dreamfish\tabcompleter\bait\TabCompleterBaitLoad.java
D:\Project\DreamFish\src\main\java\com\praya\dreamfish\handler\HandlerManager.java
D:\Project\DreamFish\src\main\java\com\praya\dreamfish\menu\MenuMemory.java
D:\Project\DreamFish\src\main\java\com\praya\dreamfish\fish\FishDrop.java
D:\Project\DreamFish\src\main\java\com\praya\dreamfish\listener\main\ListenerEntityCombust.java
D:\Project\DreamFish\src\main\java\com\praya\dreamfish\player\PlayerFishingTaskMemory.java
D:\Project\DreamFish\src\main\java\com\praya\dreamfish\command\CommandTreeMemory.java
D:\Project\DreamFish\src\main\java\com\praya\dreamfish\manager\game\FishManager.java
D:\Project\DreamFish\src\main\java\com\praya\dreamfish\player\PlayerFishingDatabase.java
D:\Project\DreamFish\src\main\java\com\praya\dreamfish\language\LanguageMemory.java
D:\Project\DreamFish\src\main\java\com\praya\dreamfish\player\PlayerFishingModeTask.java
D:\Project\DreamFish\src\main\java\com\praya\dreamfish\command\dreamfish\CommandDreamFishList.java
D:\Project\DreamFish\src\main\java\com\praya\dreamfish\plugin\PluginPropertiesMemory.java
D:\Project\DreamFish\src\main\java\com\praya\dreamfish\bait\BaitProperties.java
D:\Project\DreamFish\src\main\java\com\praya\dreamfish\menu\MenuDreamFish.java
D:\Project\DreamFish\src\main\java\com\praya\dreamfish\manager\plugin\PluginPropertiesManager.java
D:\Project\DreamFish\src\main\java\com\praya\dreamfish\bait\BaitMemory.java
D:\Project\DreamFish\src\main\java\com\praya\dreamfish\fish\FishMemory.java
D:\Project\DreamFish\src\main\java\com\praya\dreamfish\player\PlayerFishingDatabaseSQL.java
D:\Project\DreamFish\src\main\java\com\praya\dreamfish\manager\plugin\PluginManager.java
D:\Project\DreamFish\src\main\java\com\praya\dreamfish\manager\plugin\MetricsManager.java
D:\Project\DreamFish\src\main\java\com\praya\dreamfish\DreamFishPlayerMemory.java
D:\Project\DreamFish\src\main\java\com\praya\dreamfish\placeholder\PlaceholderConfig.java
D:\Project\DreamFish\src\main\java\com\praya\dreamfish\language\Language.java
D:\Project\DreamFish\src\main\java\com\praya\dreamfish\listener\custom\ListenerPlayerPullLures.java
D:\Project\DreamFish\src\main\java\com\praya\dreamfish\fish\FishProperties.java
D:\Project\DreamFish\src\main\java\com\praya\dreamfish\handler\HandlerTabCompleter.java
D:\Project\DreamFish\src\main\java\com\praya\dreamfish\command\dreamfish\CommandDreamFishReload.java
D:\Project\DreamFish\src\main\java\com\praya\dreamfish\handler\HandlerBridge.java
D:\Project\DreamFish\src\main\java\com\praya\dreamfish\player\PlayerFishingModeProperties.java
D:\Project\DreamFish\src\main\java\com\praya\dreamfish\manager\game\CommandTreeManager.java
D:\Project\DreamFish\src\main\java\com\praya\dreamfish\command\CommandArgument.java
D:\Project\DreamFish\src\main\java\com\praya\dreamfish\listener\support\ListenerJobsExpGain.java
D:\Project\DreamFish\src\main\java\com\praya\dreamfish\listener\main\ListenerPlayerFish.java
D:\Project\DreamFish\src\main\java\com\praya\dreamfish\bait\BaitConfig.java
D:\Project\DreamFish\src\main\java\com\praya\dreamfish\command\bait\CommandBaitLoad.java
D:\Project\DreamFish\src\main\java\com\praya\dreamfish\placeholder\replacer\ReplacerPlaceholderAPI.java
D:\Project\DreamFish\src\main\java\com\praya\dreamfish\command\bait\CommandBaitList.java
D:\Project\DreamFish\src\main\java\com\praya\dreamfish\command\CommandTree.java
D:\Project\DreamFish\src\main\java\com\praya\dreamfish\handler\HandlerMetrics.java
D:\Project\DreamFish\src\main\java\com\praya\dreamfish\handler\HandlerTask.java
D:\Project\DreamFish\src\main\java\com\praya\dreamfish\menu\MenuDreamFishExecutor.java
D:\Project\DreamFish\src\main\java\com\praya\dreamfish\tabcompleter\dreamfish\TabCompleterDreamFishLoad.java
D:\Project\DreamFish\src\main\java\com\praya\dreamfish\tabcompleter\dreamfish\TabCompleterDreamFishList.java
D:\Project\DreamFish\src\main\java\com\praya\dreamfish\handler\HandlerMenuExecutor.java
D:\Project\DreamFish\src\main\java\com\praya\dreamfish\manager\plugin\LanguageManager.java
D:\Project\DreamFish\src\main\java\com\praya\dreamfish\tabcompleter\dreamfish\TabCompleterDreamFishHelp.java
D:\Project\DreamFish\src\main\java\com\praya\dreamfish\event\PlayerPullLuresEvent.java
D:\Project\DreamFish\src\main\java\com\praya\dreamfish\listener\custom\ListenerPlayerFishingLevelChange.java
D:\Project\DreamFish\src\main\java\com\praya\dreamfish\DreamFishConfig.java
D:\Project\DreamFish\src\main\java\com\praya\dreamfish\command\dreamfish\CommandDreamFishAbout.java
D:\Project\DreamFish\src\main\java\com\praya\dreamfish\DreamFishTaskMemory.java
D:\Project\DreamFish\src\main\java\com\praya\dreamfish\listener\custom\ListenerMenuOpen.java
D:\Project\DreamFish\src\main\java\com\praya\dreamfish\player\PlayerFishingModeAction.java
D:\Project\DreamFish\src\main\java\com\praya\dreamfish\tabcompleter\dreamfish\TabCompleterDreamFishLevel.java
D:\Project\DreamFish\src\main\java\com\praya\dreamfish\command\dreamfish\CommandDreamFish.java
D:\Project\DreamFish\src\main\java\com\praya\dreamfish\event\PlayerCatchFishEvent.java
D:\Project\DreamFish\src\main\java\com\praya\dreamfish\metrics\MetricsMemory.java
D:\Project\DreamFish\src\main\java\com\praya\dreamfish\command\Command.java
D:\Project\DreamFish\src\main\java\com\praya\dreamfish\placeholder\PlaceholderMemory.java
D:\Project\DreamFish\src\main\java\com\praya\dreamfish\command\dreamfish\CommandDreamFishLoad.java
D:\Project\DreamFish\src\main\java\com\praya\dreamfish\placeholder\replacer\ReplacerMVDWPlaceholderAPI.java
D:\Project\DreamFish\src\main\java\com\praya\dreamfish\player\PlayerFishing.java
D:\Project\DreamFish\src\main\java\com\praya\dreamfish\event\PlayerFishingLevelChangeEvent.java
D:\Project\DreamFish\src\main\java\com\praya\dreamfish\metrics\service\BStats.java
D:\Project\DreamFish\src\main\java\com\praya\dreamfish\event\FishingChangeTensionEvent.java
D:\Project\DreamFish\src\main\java\com\praya\dreamfish\listener\main\ListenerEntityDamage.java
D:\Project\DreamFish\src\main\java\com\praya\dreamfish\player\PlayerBaitMemory.java
D:\Project\DreamFish\src\main\java\com\praya\dreamfish\command\dreamfish\CommandDreamFishExp.java
D:\Project\DreamFish\src\main\java\com\praya\dreamfish\tabcompleter\bait\TabCompleterBait.java
D:\Project\DreamFish\src\main\java\com\praya\dreamfish\bait\BaitFishingProperties.java
D:\Project\DreamFish\src\main\java\com\praya\dreamfish\manager\plugin\PlaceholderManager.java
D:\Project\DreamFish\src\main\java\com\praya\dreamfish\event\PlayerHookFishEvent.java
D:\Project\DreamFish\src\main\java\com\praya\dreamfish\tabcompleter\TabCompleterArgument.java
D:\Project\DreamFish\src\main\java\com\praya\dreamfish\command\bait\CommandBaitUse.java
D:\Project\DreamFish\src\main\java\com\praya\dreamfish\player\PlayerFishingModeMemory.java
D:\Project\DreamFish\src\main\java\com\praya\dreamfish\player\PlayerFishingMemory.java
D:\Project\DreamFish\src\main\java\com\praya\dreamfish\manager\game\GameManager.java
D:\Project\DreamFish\src\main\java\com\praya\dreamfish\tabcompleter\bait\TabCompleterBaitList.java
D:\Project\DreamFish\src\main\java\com\praya\dreamfish\handler\Handler.java
D:\Project\DreamFish\src\main\java\com\praya\dreamfish\command\dreamfish\CommandDreamFishStats.java
D:\Project\DreamFish\src\main\java\com\praya\dreamfish\manager\game\BaitManager.java
D:\Project\DreamFish\src\main\java\com\praya\dreamfish\handler\HandlerDatabase.java
D:\Project\DreamFish\src\main\java\com\praya\dreamfish\handler\HandlerMenu.java
D:\Project\DreamFish\src\main\java\com\praya\dreamfish\listener\support\ListenerMcMMOPlayerXpGain.java
D:\Project\DreamFish\src\main\java\com\praya\dreamfish\command\dreamfish\CommandDreamFishHelp.java
D:\Project\DreamFish\src\main\java\com\praya\dreamfish\listener\support\ListenerJobsPayment.java
D:\Project\DreamFish\src\main\java\com\praya\dreamfish\manager\plugin\CommandManager.java
D:\Project\DreamFish\src\main\java\com\praya\dreamfish\event\FishingChangeFishPowerEvent.java
D:\Project\DreamFish\src\main\java\com\praya\dreamfish\tabcompleter\dreamfish\TabCompleterDreamFishMenu.java
